<svg width="18" height="18" viewBox="0 0 18 18" fill="none" xmlns="http://www.w3.org/2000/svg">
<path d="M16.023 0H2.18392C1.65958 0 1.15672 0.210714 0.785962 0.585786C0.415201 0.960859 0.206909 1.46957 0.206909 2V16C0.206909 16.5304 0.415201 17.0391 0.785962 17.4142C1.15672 17.7893 1.65958 18 2.18392 18H16.023C16.5473 18 17.0502 17.7893 17.421 17.4142C17.7917 17.0391 18 16.5304 18 16V2C18 1.46957 17.7917 0.960859 17.421 0.585786C17.0502 0.210714 16.5473 0 16.023 0ZM16.023 16H2.18392V2H16.023V16ZM14.046 5.4L10.4874 9L14.046 12.6L12.6621 14L9.10346 10.4L5.54484 14L4.16093 12.6L7.71955 9L4.16093 5.4L5.54484 4L9.10346 7.6L12.6621 4L14.046 5.4Z" fill="black"/>
</svg>
