<svg width="15" height="22" viewBox="0 0 15 22" fill="none" xmlns="http://www.w3.org/2000/svg">
<path d="M13.3626 6.73297L9.74739 17.6499C9.41389 18.657 8.69399 19.4904 7.74606 19.9667C6.79812 20.443 5.6998 20.5232 4.69272 20.1897C3.68564 19.8562 2.85229 19.1363 2.37599 18.1884C1.89969 17.2404 1.81947 16.1421 2.15297 15.135L6.08251 3.26876C6.29095 2.63933 6.74089 2.11848 7.33335 1.8208C7.92581 1.52311 8.61225 1.47297 9.24168 1.68141C9.87111 1.88985 10.392 2.33978 10.6896 2.93224C10.9873 3.5247 11.0375 4.21115 10.829 4.84058L7.52821 14.8083C7.44483 15.06 7.26486 15.2684 7.02787 15.3874C6.79089 15.5065 6.51631 15.5266 6.26454 15.4432C6.01277 15.3598 5.80443 15.1798 5.68536 14.9429C5.56628 14.7059 5.54623 14.4313 5.6296 14.1795L8.61606 5.16115L7.1921 4.6896L4.20565 13.708C3.99721 14.3374 4.04735 15.0239 4.34504 15.6163C4.64272 16.2088 5.16357 16.6587 5.793 16.8671C6.42242 17.0756 7.10887 17.0254 7.70133 16.7278C8.29379 16.4301 8.74373 15.9092 8.95216 15.2798L12.253 5.31212C12.5865 4.30504 12.5063 3.20672 12.03 2.25879C11.5537 1.31085 10.7203 0.590953 9.71323 0.257455C8.70614 -0.0760426 7.60783 0.00418078 6.65989 0.480477C5.71196 0.956774 4.99206 1.79013 4.65856 2.79721L0.729013 14.6635C0.270453 16.0482 0.38076 17.5584 1.03567 18.8618C1.69058 20.1652 2.83644 21.1551 4.22118 21.6137C5.60592 22.0722 7.1161 21.9619 8.41951 21.307C9.72292 20.6521 10.7128 19.5062 11.1713 18.1215L14.7865 7.20451L13.3626 6.73297Z" fill="white"/>
</svg>
