<svg width="39" height="24" viewBox="0 0 39 24" fill="none" xmlns="http://www.w3.org/2000/svg">
<rect width="39" height="3.75" rx="1.875" fill="#606FF1"/>
<rect x="10" y="10" width="28" height="4" rx="2" fill="#606FF1"/>
<rect x="18" y="20" width="19" height="4" rx="2" fill="#606FF1"/>
</svg>
