<svg width="137" height="137" viewBox="0 0 137 137" fill="none" xmlns="http://www.w3.org/2000/svg">
<rect x="0.681274" y="0.681152" width="135.681" height="135.681" fill="#606FF1"/>
<circle cx="68.9742" cy="68.9743" r="51.1066" fill="white"/>
<path d="M94.4586 35.9585L87.3825 43.3631L58.8727 71.9529L50.5659 63.9313L43.182 56.5267L28.722 71.0273L36.1059 78.4319L51.4888 93.8581L58.565 101.263L65.9488 93.8581L101.842 57.8637L109.226 50.4591L94.4586 35.9585Z" fill="#606FF1"/>
</svg>
