<svg width="33" height="32" viewBox="0 0 33 32" fill="none" xmlns="http://www.w3.org/2000/svg">
<rect x="4.26607" y="0.532273" width="40" height="4.75" rx="2.375" transform="rotate(45 4.26607 0.532273)" fill="#606FF1" stroke="#606FF1"/>
<rect x="0.292893" y="28.5771" width="40" height="4.75" rx="2.375" transform="rotate(-45 0.292893 28.5771)" fill="#606FF1" stroke="#606FF1"/>
</svg>
