<svg width="26" height="23" viewBox="0 0 26 23" fill="none" xmlns="http://www.w3.org/2000/svg">
<path d="M2.88889 17.25L0 1.4375L7.94444 8.625L13 0L18.0556 8.625L26 1.4375L23.1111 17.25H2.88889ZM23.1111 21.5625C23.1111 22.425 22.5333 23 21.6667 23H4.33333C3.46667 23 2.88889 22.425 2.88889 21.5625V20.125H23.1111V21.5625Z" fill="#606FF1"/>
</svg>
