<svg width="45" height="45" viewBox="0 0 45 45" fill="none" xmlns="http://www.w3.org/2000/svg">
<rect width="45" height="45" rx="10" fill="#606FF1"/>
<path d="M23 27.4806C21.9657 27.4806 20.9737 27.0799 20.2423 26.3666C19.5109 25.6534 19.1 24.686 19.1 23.6774C19.1 22.2575 19.893 21.0151 21.05 20.3686L33.673 13.2439L26.484 25.3888C25.834 26.6312 24.521 27.4806 23 27.4806ZM23 11C25.353 11 27.55 11.6339 29.461 12.6734L26.731 14.2074C25.6 13.7763 24.3 13.5355 23 13.5355C20.2417 13.5355 17.5965 14.604 15.6461 16.506C13.6957 18.4079 12.6 20.9876 12.6 23.6774C12.6 26.4791 13.757 29.0145 15.642 30.8401H15.655C16.162 31.3345 16.162 32.1332 15.655 32.6276C15.148 33.122 14.316 33.122 13.809 32.6403C11.456 30.3457 10 27.1763 10 23.6774C10 20.3151 11.3696 17.0906 13.8076 14.7131C16.2456 12.3356 19.5522 11 23 11ZM36 23.6774C36 27.1763 34.544 30.3457 32.191 32.6403C31.684 33.122 30.865 33.122 30.358 32.6276C29.851 32.1332 29.851 31.3345 30.358 30.8401C32.243 29.0019 33.4 26.4791 33.4 23.6774C33.4 22.4096 33.153 21.1419 32.698 20.0009L34.271 17.3387C35.35 19.2403 36 21.3701 36 23.6774Z" fill="white"/>
</svg>
