<svg width="28" height="29" viewBox="0 0 28 29" fill="none" xmlns="http://www.w3.org/2000/svg">
<path d="M14.0032 19.575C12.6672 19.575 11.3859 19.0403 10.4412 18.0886C9.49645 17.1368 8.96572 15.846 8.96572 14.5C8.96572 13.154 9.49645 11.8632 10.4412 10.9114C11.3859 9.95969 12.6672 9.425 14.0032 9.425C15.3392 9.425 16.6205 9.95969 17.5652 10.9114C18.5099 11.8632 19.0406 13.154 19.0406 14.5C19.0406 15.846 18.5099 17.1368 17.5652 18.0886C16.6205 19.0403 15.3392 19.575 14.0032 19.575ZM24.697 15.9065C24.7546 15.4425 24.7977 14.9785 24.7977 14.5C24.7977 14.0215 24.7546 13.543 24.697 13.05L27.7339 10.6865C28.0073 10.469 28.0793 10.0775 27.9066 9.7585L25.028 4.7415C24.8553 4.4225 24.4667 4.292 24.1501 4.4225L20.5663 5.8725C19.8178 5.307 19.0406 4.814 18.1339 4.4515L17.6014 0.609C17.5438 0.261 17.2415 0 16.8817 0H11.1246C10.7648 0 10.4626 0.261 10.405 0.609L9.87246 4.4515C8.96572 4.814 8.18851 5.307 7.44009 5.8725L3.85629 4.4225C3.53965 4.292 3.15105 4.4225 2.97834 4.7415L0.0997871 9.7585C-0.0873185 10.0775 -0.00096187 10.469 0.2725 10.6865L3.30937 13.05C3.2518 13.543 3.20862 14.0215 3.20862 14.5C3.20862 14.9785 3.2518 15.4425 3.30937 15.9065L0.2725 18.3135C-0.00096187 18.531 -0.0873185 18.9225 0.0997871 19.2415L2.97834 24.2585C3.15105 24.5775 3.53965 24.6935 3.85629 24.5775L7.44009 23.113C8.18851 23.693 8.96572 24.186 9.87246 24.5485L10.405 28.391C10.4626 28.739 10.7648 29 11.1246 29H16.8817C17.2415 29 17.5438 28.739 17.6014 28.391L18.1339 24.5485C19.0406 24.1715 19.8178 23.693 20.5663 23.113L24.1501 24.5775C24.4667 24.6935 24.8553 24.5775 25.028 24.2585L27.9066 19.2415C28.0793 18.9225 28.0073 18.531 27.7339 18.3135L24.697 15.9065Z" fill="#606FF1"/>
</svg>
