<svg width="36" height="43" viewBox="0 0 36 43" fill="none" xmlns="http://www.w3.org/2000/svg">
<path d="M27 4.3V0H9V4.3H0V19.35C0 21.715 1.62 23.65 3.6 23.65H9.18C9.9 27.864 12.672 31.175 16.2 32.035V36.722C10.8 37.711 10.8 43 10.8 43H25.2C25.2 43 25.2 37.711 19.8 36.722V32.035C23.328 31.175 26.1 27.864 26.82 23.65H32.4C34.38 23.65 36 21.715 36 19.35V4.3H27ZM3.6 19.35V8.6H9V19.35H3.6ZM32.4 19.35H27V8.6H32.4V19.35Z" fill="white"/>
</svg>
