<svg width="37" height="45" viewBox="0 0 37 45" fill="none" xmlns="http://www.w3.org/2000/svg">
<path d="M20.828 0C12.1182 0 5.09497 7.21327 4.65601 16.2849L0.220268 22.4712C-0.3342 23.2292 0.220268 24.4518 1.19059 24.4518H4.65601V31.7873C4.65601 34.5014 6.71217 36.6776 9.27658 36.6776H11.5869V44.0132H27.7589V32.5453C33.2342 29.8067 37 23.9627 37 17.1162C37 7.67785 29.7919 0 20.828 0ZM23.1383 26.8969H18.5177V24.4518H23.1383V26.8969ZM26.8347 15.8936C26.2341 16.9695 25.3562 17.8987 24.2934 18.5344V22.0066H17.3626V18.5344C14.0589 16.5049 12.9037 12.0303 14.8213 8.55812C16.7388 5.08597 20.9897 3.81447 24.2934 5.81952C27.5971 7.82456 28.7523 12.3481 26.8347 15.8936Z" fill="white"/>
</svg>
